[gd_scene load_steps=3 format=2]

[ext_resource path="res://assets/shadow_wall.png" type="Texture" id=1]

[sub_resource type="LineShape2D" id=1]
normal = Vector2( 0, -0.22 )

[node name="Shadow_Wall" type="RigidBody2D"]
position = Vector2( 92.8597, 140.08 )

[node name="CollisionShape2D" type="CollisionShape2D" parent="."]
shape = SubResource( 1 )

[node name="Sprite" type="Sprite" parent="."]
self_modulate = Color( 0, 0, 0, 0.701961 )
scale = Vector2( 0.7, 0.6 )
texture = ExtResource( 1 )
